{
  "$schema": "http://json-schema.org/draft-07/schema#",
  "$comment": "This file is an implementation detail! All the below schema ensure that is a known key is defined, the correct type is used. Required properties are only enforced when we are sure that we have a KPlugin object. Licensed under MIT, by Alexander Lohnau",
  "if": {
    "type": "object"
  },
  "then": {
    "allOf": [
      {
        "$ref": "kpluginmetadata.schema.json"
      },
      {
        "$ref": "_extrakeys.schema.json"
      },
      {
        "$ref": "_extrakeys.applets.schema.json"
      },
      {
        "$ref": "_extrakeys.krunner.schema.json"
      }
    ]
  }
}
