{
  "$schema": "http://json-schema.org/draft-07/schema#",
  "$comment": "This file is an implementation detail! Additional keys that are commonly used in KDE metadata files. This includes KCM and KPackage specific ones. Licensed under MIT, by Alexander Lohnau",
  "properties": {
    "X-KDE-OnlyShowOnQtPlatforms": {
      "type": "array",
      "uniqueItems": true,
      "items": {
        "type": "string"
      }
    },
    "X-KDE-System-Settings-Parent-Category": {
      "type": "string",
      "enum": [
        "advanced-user-settings",
        "appearance",
        "applications-defaults",
        "applications-permissions",
        "applications",
        "audio-and-video",
        "display",
        "font",
        "hardware-input-touchscreen",
        "hardware",
        "input-devices",
        "keyboard",
        "network",
        "networksettings",
        "personalization",
        "pointing-devices",
        "regionalsettings",
        "removable-storage",
        "search",
        "security-privacy",
        "session",
        "system-administration",
        "themes",
        "windowmanagement",
        "workspace",
        "rootcategory"
      ]
    },
    "X-KDE-KInfoCenter-Category": {
      "type": "string",
      "enum": [
        "basic_information",
        "device_information",
        "graphical_information",
        "lost_and_found",
        "network_information"
      ]
    },
    "X-KDE-Weight": {
      "type": "integer"
    },
    "Keywords": {
      "type": "string"
    },
    "X-KDE-Keywords": {
      "description": "Keywords for finding this plugin. This is used for all KCMs",
      "type": "string"
    },
    "KPackageStructure": {
      "type": "string",
      "pattern": "^\\w+/\\w+",
      "$comment": "Structure should consist of a namespace identifier and a resource identifier"
    },
    "X-KDE-Ordering": {
      "description": "Used in KWin",
      "type": "number"
    },
    "X-DocPath": {
      "description": "Path to documentation of plugins and KCMs",
      "type": "string"
    },
    "X-KDE-Init-Phase": {
      "description": "For KCMs that have symlinks of themselves installed to plasma/kcminit",
      "type": "number"
    }
  }
}
