{
  "$schema": "http://json-schema.org/draft-07/schema#",
  "description": "JSON metadata for KParts plugins",
  "$comment": "Licensed under MIT, by Alexander Lohnau. The single-source-of-trough should be in CI-utilities",
  "allOf": [
    {
      "$ref": "kpluginmetadata.schema.json"
    },
    {
      "$ref": "_extrakeys.kparts.schema.json"
    }
  ]
}
