[
    {
        "id": "clt2025",
        "name": "Chemnitzer Linux-Tage 2025",
        "description": "the Culture of Open Source",
        "days": ["2025-03-22", "2025-03-23"],
        "icalUrl": "https://chemnitzer.linux-tage.de/2025/de/api/ical/programm/vortrag",
        "venueLatitude": 50.8135761,
        "venueLongitude": 12.9297079,
        "timeZoneId": "Europe/Berlin",
        "indoorMap": {
            "minLatitude": 50.812894,
            "minLongitude": 12.928336,
            "maxLatitude": 50.814107,
            "maxLongitude": 12.931176
        }
    },
    {
        "id": "fossgis2025",
        "name": "FOSSGIS-Konferenz 2025",
        "description": "Die FOSSGIS-Konferenz ist im D-A-CH-Raum die führende Konferenz für Freie und Open Source Software für Geoinformationssysteme sowie für die Themen Open Data und OpenStreetMap.",
        "days": ["2025-03-26", "2025-03-27", "2025-03-28", "2025-03-29"],
        "icalUrl": "https://pretalx.com/fossgis2025/schedule/export/schedule.ics",
        "venueLatitude": 51.9635870,
        "venueLongitude": 7.6132957,
        "timeZoneId": "Europe/Berlin"
    },
    {
        "id": "fosdem2025",
        "name": "FOSDEM 2025",
        "description": "FOSDEM is a free event for software developers to meet, share ideas and collaborate. Every year, thousands of developers of free and open source software from all over the world gather at the event in Brussels.",
        "days": ["2025-02-01", "2025-02-02"],
        "icalUrl": "https://fosdem.org/2025/schedule/xcal",
        "venueLatitude": 50.812375,
        "venueLongitude": 4.38073,
        "timeZoneId": "Europe/Brussels"
    },
    {
        "id": "38c3",
        "name": "38th Chaos Communication Congress",
        "description": "The 38th Chaos Communication Congress (38C3) takes place in Hamburg, 27.-30.12.2024, and is the 2024 edition of the annual four-day conference on technology, society and utopia organised by the Chaos Computer Club (CCC) and volunteers.",
        "days": ["2024-12-27", "2024-12-28", "2024-12-29", "2024-12-30"],
        "icalUrl": "https://cfp.cccv.de/38c3/schedule/export/schedule.xcal",
        "venueLatitude": 53.5622,
        "venueLongitude": 9.98532,
        "timeZoneId": "Europe/Berlin"
    },
    {
        "id": "akademy2024",
        "name": "Akademy 2024",
        "description": "Akademy is the annual world summit of KDE, one of the largest Free Software communities in the world. It is a free, non-commercial event organized by the KDE Community.",
        "days": ["2024-09-07", "2024-09-08", "2024-09-09", "2024-09-10", "2024-09-11", "2024-09-12"],
        "icalUrl": "https://conf.kde.org/event/6/event.ics?detail=contributions",
        "venueLatitude": "49.7811856",
        "venueLongitude": "9.9728395",
        "timeZoneId": "Europe/Berlin",
        "indoorMap": {
            "minLatitude": 49.78068,
            "minLongitude": 9.97225,
            "maxLatitude": 49.78163,
            "maxLongitude": 9.97449,
            "style": "https://autoconfig.kde.org/kongress/akademy2024-light.mapcss",
            "styleDark": "https://autoconfig.kde.org/kongress/akademy2024-dark.mapcss",
            "extraContent": "https://autoconfig.kde.org/kongress/akademy2024.osc"
        }
    },
    {
        "id": "state-of-the-map-2024",
        "name": "State of the Map 2024",
        "description": "State of the Map is the annual event for all mappers and OpenStreetMap users. In 2024 the State of the Map conference will be taking place in Nairobi, Kenya and online. It will be a three day conference packed with talks, workshops, discussion rounds and more.",
        "days": ["2024-09-06", "2024-09-07", "2024-09-08"],
        "icalUrl": "https://sotm.osmz.ru/sotm2024.ics",
        "venueLatitude": "-1.27903550863266",
        "venueLongitude": "36.81655079126358",
        "timeZoneId": "Africa/Nairobi"
    },
    {
        "id": "froscon2024",
        "name": "FrOSCon 2024",
        "description": "Free Software and Open Source - these are the topics of FrOSCon (Free and Open Source Software Conference)",
        "days": ["2024-08-17", "2024-08-18"],
        "icalUrl": "https://programm.froscon.de/2024/schedule.ics",
        "venueLatitude": "50.77983",
        "venueLongitude": "7.18301",
        "timeZoneId": "Europe/Berlin"
    },
    {
        "id": "state-of-the-map-europe-2024",
        "name": "State of the Map Europe 2024",
        "description": "State of the Map Europe is an international event that takes place in various countries in Europe. The aim of this event is to exchange experience, improve existing mapping practices and popularize free cartography around the world.",
        "days": ["2024-07-18", "2024-07-19", "2024-07-20", "2024-07-21"],
        "icalUrl": "https://cfp.openstreetmap.org.pl/state-of-the-map-europe-2024/schedule/export/schedule.ics",
        "venueLatitude": "51.75453",
        "venueLongitude": "19.44963",
        "timeZoneId": "Europe/Warsaw"
    },
    {
        "id": "gpn22",
        "name": "22. Gulaschprogrammiernacht",
        "description": "Die GPN22 wird vom 30.05 bis 02.06 2024 stattfinden. Vier Tage lang erwarten euch Hacken, Gulasch, Vorträge, Tschunk, Workshops, Lounge, Mate und Spaß am Gerät.",
        "days": ["2024-05-30", "2024-05-31", "2024-06-01", "2024-06-02"],
        "icalUrl": "https://cfp.gulas.ch/gpn22/schedule/export/schedule.ics",
        "venueLatitude": "49.0022817",
        "venueLongitude": "8.3840870",
        "timeZoneId": "Europe/Berlin"
    },
    {
        "id": "fossgis2024",
        "name": "FOSSGIS-Konferenz 2024",
        "description": "Die FOSSGIS-Konferenz ist im D-A-CH-Raum die führende Konferenz für Freie und Open Source Software für Geoinformationssysteme sowie für die Themen Open Data und OpenStreetMap.",
        "days": ["2024-03-20", "2024-03-21", "2024-03-22", "2024-03-23"],
        "icalUrl": "https://pretalx.com/fossgis2024/schedule/export/schedule.ics",
        "venueLatitude": "53.4622170",
        "venueLongitude": "9.9696102",
        "timeZoneId": "Europe/Berlin"
    },
    {
        "id": "glt24",
        "name": "Grazer Linuxtage",
        "description": "Grazer Linuxtage is an annual conference around Open source software and hardware.",
        "days": ["2024-04-05", "2024-04-06"],
        "icalUrl": "https://pretalx.linuxtage.at/glt24/schedule.ics",
        "venueLatitude": "47.05846",
        "venueLongitude": "15.45954",
        "venueOsmUrl": "https://www.openstreetmap.org/?mlat=47.05846&amp;mlon=15.45954",
        "timeZoneId": "Europe/Vienna"
    },
    {
        "id": "fosdem2024",
        "name": "FOSDEM 2024",
        "description": "FOSDEM is a free event for software developers to meet, share ideas and collaborate. Every year, thousands of developers of free and open source software from all over the world gather at the event in Brussels.",
        "days": ["2024-02-03", "2024-02-04"],
        "icalUrl": "https://fosdem.org/2024/schedule/ical",
        "venueLatitude": "50.812375",
        "venueLongitude": "4.38073",
        "venueOsmUrl": "http://www.openstreetmap.org/?mlat=50.812375&mlon=4.38073",
        "timeZoneId": "Europe/Brussels"
    },
    {
        "id": "37c3",
        "name": "37th Chaos Communication Congress",
        "description": "The 37th Chaos Communication Congress (37C3) takes place in Hamburg, 27.-30.12.2023, and is the 2023 edition of the annual four-day conference on technology, society and utopia organised by the Chaos Computer Club (CCC) and volunteers.",
        "days": ["2023-12-27", "2023-12-28", "2023-12-29", "2023-12-30"],
        "icalUrl": "https://fahrplan.events.ccc.de/congress/2023/fahrplan/schedule.ics",
        "venueLatitude": "53.5622",
        "venueLongitude": "9.98532",
        "venueOsmUrl": "https://www.openstreetmap.org/?mlat=53.5622&mlon=9.98532",
        "timeZoneId": "Europe/Berlin"
    },
    {
        "id": "wikidatacon2023",
        "name": "WikidataCon 2023",
        "description": "WikidataCon is a conference jointly organized by Wikimedia Germany and Wikimedia Taiwan that explores open data projects in East Asia. It’s a gathering that brings Wikidata enthusiasts together and encourages collaboration across boundaries, such as divergent fields of work, different cultural institutions, levels of education, research, and more.",
        "days": ["2023-10-28", "2023-10-29"],
        "icalUrl": "https://pretalx.com/wikidatacon2023/schedule/export/schedule.ics",
        "venueLatitude": "24.94599",
        "venueLongitude": "121.37144",
        "timeZoneId": "Asia/Taipei"
    },
    {
        "id": "akademy2023",
        "name": "Akademy 2023",
        "description": "Akademy is the annual world summit of KDE, one of the largest Free Software communities in the world. It is a free, non-commercial event organized by the KDE Community.",
        "days": ["2023-07-14", "2023-07-15", "2023-07-16", "2023-07-17", "2023-07-18", "2023-07-19", "2023-07-20", "2023-07-21"],
        "icalUrl": "https://conf.kde.org/event/5/event.ics?detail=contributions",
        "venueLatitude": "40.6254310",
        "venueLongitude": "22.9603673",
        "timeZoneId": "Europe/Athens"
    },
    {
        "id": "las2023",
        "name": "Linux App Summit (LAS) 2023",
        "description": "The Linux App Summit (LAS) brings the global Linux community together to learn, collaborate, and help grow the Linux application ecosystem.",
        "days": ["2023-04-21", "2023-04-22", "2023-04-23"],
        "icalUrl": "https://conf.linuxappsummit.org/event/5/event.ics?detail=contributions",
        "venueLatitude": "49.2098159",
        "venueLongitude": "16.5988661",
        "timeZoneId": "Europe/Prague"
    },
    {
        "id": "fossgis2023",
        "name": "FOSSGIS-Konferenz 2023",
        "description": "Die FOSSGIS-Konferenz ist im D-A-CH-Raum die führende Konferenz für Freie und Open Source Software für Geoinformationssysteme sowie für die Themen Open Data und OpenStreetMap.",
        "days": ["2023-03-15", "2023-03-16", "2023-03-17", "2023-03-18"],
        "icalUrl": "https://pretalx.com/fossgis2023/schedule/export/schedule.ics",
        "venueLatitude": "52.4309122",
        "venueLongitude": "13.5316376",
        "timeZoneId": "Europe/Berlin"
    },
    {
        "id": "fosdem2023",
        "name": "FOSDEM 2023",
        "description": "FOSDEM is a free event for software developers to meet, share ideas and collaborate. Every year, thousands of developers of free and open source software from all over the world gather at the event in Brussels.",
        "days": ["2023-02-04", "2023-02-05"],
        "icalUrl": "https://fosdem.org/2023/schedule/ical",
        "venueImageUrl": "",
        "venueLatitude": "50.812375",
        "venueLongitude": "4.38073",
        "venueOsmUrl": "http://www.openstreetmap.org/?mlat=50.812375&mlon=4.38073",
        "timeZoneId": "Europe/Brussels"
    },
    {
        "id": "fire-shonks-2022",
        "name": "FireShonks",
        "description": "FireShonks is a remote talk event from Dec. 27-30, 2022 and is conducted by the Haecksen and r3s.",
        "days": ["2022-12-27", "2022-12-28", "2022-12-29", "2022-12-30"],
        "icalUrl": "https://pretalx.c3voc.de/fire-shonks-2022/schedule/export/schedule.ics",
        "timeZoneId": "Europe/Berlin"
    },
    {
        "id": "hip-berlin-2022",
        "name": "Hacking in Parallel ///HiP-Berlin///",
        "description": "The Hacking in Parallel (///HiP-Berlin///) conference will take place from December 27-30 2022 at ETI Schauspielschule (directly above c-base) in Berlin.",
        "days": ["2022-12-27", "2022-12-28", "2022-12-29", "2022-12-30"],
        "icalUrl": "https://pretalx.c3voc.de/hip-berlin-2022/schedule/export/schedule.ics",
        "venueLatitude": "52.5126955",
        "venueLongitude": "13.4200068",
        "timeZoneId": "Europe/Berlin"
    },
    {
        "id": "rtc22",
        "name": "Reconnect to CHAOS",
        "description": "There will be a small on-site event at freiLand Potsdam. We call it “RTC - Reconnect To Chaos!”.",
        "days": ["2022-12-27", "2022-12-28", "2022-12-29", "2022-12-30"],
        "icalUrl": "https://cfp.ccc-p.org/rtc22/schedule/export/schedule.ics",
        "venueLatitude": "52.3895365",
        "venueLongitude": "13.0765773",
        "timeZoneId": "Europe/Berlin"
    },
    {
        "id": "akademy2022",
        "name": "Akademy 2022",
        "description": "Akademy is the annual world summit of KDE, one of the largest Free Software communities in the world. It is a free, non-commercial event organized by the KDE Community.",
        "days": ["2022-10-01", "2022-10-02", "2022-10-03", "2022-10-04", "2022-10-05", "2022-10-06", "2022-10-07"],
        "icalUrl": "https://conf.kde.org/event/4/event.ics?detail=contributions",
        "venueImageUrl": "",
        "venueLatitude": "41.3905",
        "venueLongitude": "2.1143",
        "venueOsmUrl": "",
        "timeZoneId": "Europe/Madrid"
    },
    {
        "id": "froscon2022",
        "name": "FrOSCon 2022",
        "description": "Free Software and Open Source - these are the topics of FrOSCon",
        "days": ["2022-08-20", "2022-08-21"],
        "icalUrl": "https://programm.froscon.de/2022/schedule.ics",
        "venueImageUrl": "",
        "venueLatitude": "50.77983",
        "venueLongitude": "7.18301",
        "venueOsmUrl": "",
        "timeZoneId": "Europe/Berlin"
    },
    {
        "id": "fosdem2022",
        "name": "FOSDEM 2022",
        "description": "FOSDEM is a free event for software developers to meet, share ideas and collaborate. Every year, thousands of developers of free and open source software from all over the world gather at the event in Brussels. In 2022, they will gather online.",
        "days": ["2022-02-05", "2022-02-06"],
        "icalUrl": "https://fosdem.org/2022/schedule/ical",
        "venueImageUrl": "",
        "venueLatitude": "",
        "venueLongitude": "",
        "venueOsmUrl": "",
        "timeZoneId": "Europe/Brussels"
    },
    {
        "id": "rc3-2021-ccch",
        "name": "rc3 2021 // chaosstudio hamburg",
        "description": "The Remote Chaos Experience (rC3) by the Chaos Computer Club // Chaosstudio Hamburg",
        "days": ["2021-12-27", "2021-12-28", "2021-12-29", "2021-12-30"],
        "icalUrl": "https://pretalx.c3voc.de/rc3-2021-chaosstudiohamburg/schedule/export/schedule.ics",
        "venueImageUrl": "",
        "venueLatitude": "",
        "venueLongitude": "",
        "venueOsmUrl": "",
        "timeZoneId": "Europe/Berlin"
    },
    {
        "id": "rc3-2021-bierscheune",
        "name": "rc3 2021 // bierscheune",
        "description": "The Remote Chaos Experience (rC3) by the Chaos Computer Club // Bierscheune",
        "days": ["2021-12-27", "2021-12-28", "2021-12-29", "2021-12-30"],
        "icalUrl": "https://pretalx.c3voc.de/rc3-2021-gehacktes-from-hell/schedule/export/schedule.ics",
        "venueImageUrl": "",
        "venueLatitude": "",
        "venueLongitude": "",
        "venueOsmUrl": "",
        "timeZoneId": "Europe/Berlin"
    },
    {
        "id": "rc3-2021-fem-channel",
        "name": "rc3 2021 // fem channel",
        "description": "The Remote Chaos Experience (rC3) by the Chaos Computer Club // FeM Channel",
        "days": ["2021-12-27", "2021-12-28", "2021-12-29", "2021-12-30"],
        "icalUrl": "https://pretalx.c3voc.de/rc3-2021-fem/schedule/export/schedule.ics",
        "venueImageUrl": "",
        "venueLatitude": "",
        "venueLongitude": "",
        "venueOsmUrl": "",
        "timeZoneId": "Europe/Berlin"
    },
    {
        "id": "rc3-2021-r3s-monheim-rhein",
        "name": "rc3 2021 // r3s - monheim/rhein",
        "description": "The Remote Chaos Experience (rC3) by the Chaos Computer Club // r3s - Monheim/Rhein",
        "days": ["2021-12-27", "2021-12-28", "2021-12-29", "2021-12-30"],
        "icalUrl": "https://pretalx.c3voc.de/rc3-2021-r3s/schedule/export/schedule.ics",
        "venueImageUrl": "",
        "venueLatitude": "",
        "venueLongitude": "",
        "venueOsmUrl": "",
        "timeZoneId": "Europe/Berlin"
    },
    {
        "id": "rc3-2021-sendezentrum-buhne",
        "name": "rc3 2021 // sendezentrum bühne",
        "description": "The Remote Chaos Experience (rC3) by the Chaos Computer Club // Sendezentrum Bühne",
        "days": ["2021-12-27", "2021-12-28", "2021-12-29", "2021-12-30"],
        "icalUrl": "https://pretalx.c3voc.de/rc3-2021-sendezentrum/schedule/export/schedule.ics",
        "venueImageUrl": "",
        "venueLatitude": "",
        "venueLongitude": "",
        "venueOsmUrl": "",
        "timeZoneId": "Europe/Berlin"
    },
    {
        "id": "rc3-2021-haecksen",
        "name": "rc3 2021 // haecksen",
        "description": "The Remote Chaos Experience (rC3) by the Chaos Computer Club // Haecksen",
        "days": ["2021-12-27", "2021-12-28", "2021-12-29", "2021-12-30"],
        "icalUrl": "https://pretalx.c3voc.de/rc3-2021-haecksen/schedule/export/schedule.ics",
        "venueImageUrl": "",
        "venueLatitude": "",
        "venueLongitude": "",
        "venueOsmUrl": "",
        "timeZoneId": "Europe/Berlin"
    },
    {
        "id": "rc3-2021-xhain-lichtung",
        "name": "rc3 2021 // lichtung",
        "description": "The Remote Chaos Experience (rC3) by the Chaos Computer Club // xHain - Lichtung",
        "days": ["2021-12-27", "2021-12-28", "2021-12-29", "2021-12-30"],
        "icalUrl": "https://pretalx.c3voc.de/rc3-2021-xhain/schedule/export/schedule.ics",
        "venueImageUrl": "",
        "venueLatitude": "",
        "venueLongitude": "",
        "venueOsmUrl": "",
        "timeZoneId": "Europe/Berlin"
    },
    {
        "id": "rc3-2021-chaoszone-tv",
        "name": "rc3 2021 // chaoszone-tv",
        "description": "The Remote Chaos Experience (rC3) by the Chaos Computer Club // ChaosZone TV",
        "days": ["2021-12-27", "2021-12-28", "2021-12-29", "2021-12-30"],
        "icalUrl": "https://pretalx.c3voc.de/rc3-2021-chaoszone/schedule/export/schedule.ics",
        "venueImageUrl": "",
        "venueLatitude": "",
        "venueLongitude": "",
        "venueOsmUrl": "",
        "timeZoneId": "Europe/Berlin"
    },
    {
        "id": "rc3-2021-cbase",
        "name": "rc3 2021 // c-base",
        "description": "The Remote Chaos Experience (rC3) by the Chaos Computer Club // c-base",
        "days": ["2021-12-27", "2021-12-28", "2021-12-29", "2021-12-30"],
        "icalUrl": "https://pretalx.c3voc.de/rc3-2021-cbase/schedule/export/schedule.ics",
        "venueImageUrl": "",
        "venueLatitude": "",
        "venueLongitude": "",
        "venueOsmUrl": "",
        "timeZoneId": "Europe/Berlin"
    },
    {
        "id": "rc3-2021-chaos-west-tv",
        "name": "rc3 2021 // chaos-west tv",
        "description": "The Remote Chaos Experience (rC3) by the Chaos Computer Club // Chaos-West TV",
        "days": ["2021-12-27", "2021-12-28", "2021-12-29", "2021-12-30"],
        "icalUrl": "https://pretalx.c3voc.de/rc3-2021-cwtv/schedule/export/schedule.ics",
        "venueImageUrl": "",
        "venueLatitude": "",
        "venueLongitude": "",
        "venueOsmUrl": "",
        "timeZoneId": "Europe/Berlin"
    },
    {
        "id": "akademy2021",
        "name": "Akademy 2021",
        "description": "Akademy is the annual world summit of KDE, one of the largest Free Software communities in the world. It is a free, non-commercial event organized by the KDE Community.",
        "days": ["2021-06-18", "2021-06-19", "2021-06-20", "2021-06-21", "2021-06-22", "2021-06-23", "2021-06-24", "2021-06-25"],
        "icalUrl": "https://conf.kde.org/event/1/event.ics?detail=contributions",
        "venueImageUrl": "",
        "venueLatitude": "",
        "venueLongitude": "",
        "venueOsmUrl": "",
        "timeZoneId": "UTC"
    },
    {
        "id": "las2021",
        "name": "Linux App Summit (LAS) 2021",
        "description": "The Linux App Summit (LAS) is designed to accelerate the growth of the Linux application ecosystem by bringing together everyone involved in creating a great Linux application user experience",
        "days": ["2021-05-13", "2021-05-14", "2021-05-15"],
        "icalUrl": "https://conf.linuxappsummit.org/event/3/event.ics?detail=contributions",
        "venueImageUrl": "",
        "venueLatitude": "",
        "venueLongitude": "",
        "venueOsmUrl": "",
        "timeZoneId": "UTC"
    },
    {
        "id": "fossasia2021",
        "name": "FOSSASIA Summit 2021",
        "description": "The FOSSASIA Summit is a unique event with a broad range of open technology topics such as web and mobile technologies, Javascript, Python, cloud services, artificial intelligence, Open Hardware and production, privacy, security, digital sovereignty, Blockchain, DevOps, databases, kernel and platform, Open Source licences and compliance, open health tech and Covid-19, Open Science, Open Source culture and circular economy.",
        "days": ["2021-03-13","2021-03-14","2021-03-15","2021-03-16","2021-03-17","2021-03-18","2021-03-19","2021-03-20","2021-03-21"],
        "icalUrl": "https://api.eventyay.com/v1/events/fa96ae2c.ics?include_sessions",
        "venueImageUrl": "",
        "venueLatitude": "",
        "venueLongitude": "",
        "venueOsmUrl": "",
        "timeZoneId": "Asia/Singapore"
    },
    {
            "id": "fosdem2021",
            "name": "FOSDEM 2021",
            "description": "FOSDEM is a free event for software developers to meet, share ideas and collaborate. Every year, thousands of developers of free and open source software from all over the world gather at the event in Brussels. In 2021, they will gather online.",
            "days": ["2021-02-06", "2021-02-07"],
            "icalUrl": "https://fosdem.org/2021/schedule/ical",
            "venueImageUrl": "",
            "venueLatitude": "",
            "venueLongitude": "",
            "venueOsmUrl": "",
            "timeZoneId": "Europe/Brussels"
        },
    {
        "id": "rc32020",
        "name": "RC3",
        "description": "The Chaos Communication Congress is an annual conference organized by the Chaos Computer Club. This year, CCC hosts the Remote Chaos Experience (rC3) instead of an on-site event.",
        "days": ["2020-12-27", "2020-12-28", "2020-12-29", "2020-12-30"],
        "icalUrl": "https://fahrplan.events.ccc.de/rc3/2020/Fahrplan/schedule.ics",
        "venueImageUrl": "",
        "venueLatitude": "",
        "venueLongitude": "",
        "venueOsmUrl": "",
        "timeZoneId": "Europe/Berlin"
    },
    {
        "id": "las2020",
        "name": "Linux App Summit (LAS)",
        "description": "The Linux App Summit (LAS) is designed to accelerate the growth of the Linux application ecosystem by bringing together everyone involved in creating a great Linux application user experience.",
        "days": ["2020-11-12", "2020-11-13", "2020-11-14"],
        "icalUrl": "https://conf.linuxappsummit.org/event/1/event.ics?detail=contributions",
        "venueImageUrl": "",
        "venueLatitude": "",
        "venueLongitude": "",
        "venueOsmUrl": "",
        "timeZoneId": "UTC"
    },
    {
        "id": "sfscon2020",
        "name": "SFSCON 2020",
        "description": "The South Tyrol Free Software Conference (SFScon) is an event of international stature that attracts more and more visitors every year from Northern Italy, Austria and Switzerland.",
        "days": ["2020-11-13", "2020-11-14"],
        "icalUrl": "https://www.sfscon.it/?calendar=2020",
        "venueImageUrl": "",
        "venueLatitude": "",
        "venueLongitude": "",
        "venueOsmUrl": "",
        "timeZoneId": "Europe/Rome"
    },
    {
        "id": "akademy2020",
        "name": "Akademy 2020",
        "description": "Akademy is the annual world summit of KDE, one of the largest Free Software communities in the world. It is a free, non-commercial event organized by the KDE Community",
        "days": ["2020-09-04", "2020-09-05", "2020-09-06", "2020-09-11"],
        "icalUrl": "https://conf.kde.org/en/akademy2020/public/schedule.ics",
        "venueImageUrl": "",
        "venueLatitude": "",
        "venueLongitude": "",
        "venueOsmUrl": "",
        "timeZoneId": "UTC"
    },
    {
        "id": "debConf20",
        "name": "DebConf20",
        "description": "DebConf is the annual conference for Debian contributors and users interested in improving Debian. Previous Debian conferences have featured speakers and attendees from all around the world. DebConf19 took place in Curitiba, Brazil and was attended by 382 participants from 50 countries.",
        "days": ["2020-08-23","2020-08-24","2020-08-25","2020-08-26","2020-08-27","2020-08-28","2020-08-29"],
        "icalUrl": "https://debconf20.debconf.org/schedule/schedule.ics",
        "venueImageUrl": "",
        "venueLatitude": "",
        "venueLongitude": "",
        "venueOsmUrl": "",
        "timeZoneId": "UTC"
    },
    {

        "id": "fosdem2020",
        "name": "FOSDEM",
        "description": "FOSDEM is a free event for software developers to meet, share ideas and collaborate. Every year, thousands of developers of free and open source software from all over the world gather at the event in Brussels.",
        "days": ["2020-02-01", "2020-02-02"],
        "icalUrl": "https://fosdem.org/2020/schedule/ical",
        "venueImageUrl": "https://fosdem.org/2020/assets/campusmap-7048bbd8da9f1dc553378bda1b08c3bd831b1c923d522c6981708abe2fd2c7ce.png",
        "venueLatitude": "N50.812375",
        "venueLongitude": "E4.380734",
        "venueOsmUrl": "https://www.openstreetmap.org/?mlat=50.812375&mlon=4.38073",
        "timeZoneId": "Europe/Brussels"
    },
    {
        "id": "confKdeIn2020",
        "name": "conf.kde.in",
        "description": "conf.kde.in 2020 will be held in Maharaja Agrasen Institute of Technology, located in Rohini, Delhi, India. The aim of MAIT is to promote quality education in the field of Technology.",
        "days":  ["2020-01-17", "2020-01-18", "2020-01-19"],
        "icalUrl": "https://conf.kde.org/en/cki2020/public/schedule.ics",
        "venueImageUrl": "",
        "venueLatitude": "N28.71964",
        "venueLongitude": "E77.06613",
        "venueOsmUrl": "https://www.openstreetmap.org/?mlat=28.71964&mlon=77.06613",
        "timeZoneId": "Asia/Kolkata"
    }
]


